{
  "id": "fa65ea58-a6e2-11e5-8561-001fd05bb228",
  "environment": "ubuntu:14.04",
  "name": "Xvfb",
  "type": "application",
  "run": {
    "script": "launch.py",
    "version": "3.3.0",
    "language": "python"
  },
  "install": [
    {
      "id": "bb55bb30-a6ed-11e5-8829-001fd05bb228",
      "revision": "b5691a034b87976229503b714705e37dbede3d6b",
      "name": "X.org Server Source Code",
      "type": "file",
      "to": "xorg-server-1.12.2.tar.gz",
      "source": "ftp://mirror.csclub.uwaterloo.ca/x.org/current/src/xserver/xorg-server-1.12.2.tar.gz"
    },
    {
      "id": "0abce4ce-aa0d-11e5-b068-001fd05bb228",
      "revision": "02de83743b7b439e5c015c516a4f289a930deb60",
      "name": "X.org xkeyboard-config Source Code",
      "type": "file",
      "to": "xkeyboard-config-2.6.tar.gz",
      "source": "ftp://mirror.csclub.uwaterloo.ca/x.org/current/src/data/xkeyboard-config-2.6.tar.gz"
    },
    {
      "to": "xkbcomp-1.2.4.tar.gz",
      "revision": "ab03e179ff637685d20004be8472c89bd5e3c3fa",
      "name": "X.org xkbcomp Source Code",
      "type": "file",
      "id": "c2e6ca46-aa0e-11e5-a63a-001fd05bb228",
      "source": "ftp://mirror.csclub.uwaterloo.ca/x.org/current/src/app/xkbcomp-1.2.4.tar.gz"
    }
  ],
  "build": {
    "script": "build.sh",
    "language": "bash"
  },
  "architecture": "x86-64",
  "provides": {
    "capabilities": [
      "x11",
      "video"
    ]
  }
}